%!PS-Adobe-2.0 EPSF-2.0
%%Title: fig5.eps
%%Creator: fig2dev Version 3.2 Patchlevel 3d
%%CreationDate: $FreeBSD: stable/9/share/doc/papers/timecounter/fig5.eps 116411 2003-06-15 18:49:46Z phk $
%%For: phk@critter.freebsd.dk (Poul-Henning Kamp)
%%BoundingBox: 0 0 140 225
%%Magnification: 1.0000
%%EndComments
/$F2psDict 200 dict def
$F2psDict begin
$F2psDict /mtrx matrix put
/col-1 {0 setgray} bind def
/col0 {0.000 0.000 0.000 srgb} bind def
/col1 {0.000 0.000 1.000 srgb} bind def
/col2 {0.000 1.000 0.000 srgb} bind def
/col3 {0.000 1.000 1.000 srgb} bind def
/col4 {1.000 0.000 0.000 srgb} bind def
/col5 {1.000 0.000 1.000 srgb} bind def
/col6 {1.000 1.000 0.000 srgb} bind def
/col7 {1.000 1.000 1.000 srgb} bind def
/col8 {0.000 0.000 0.560 srgb} bind def
/col9 {0.000 0.000 0.690 srgb} bind def
/col10 {0.000 0.000 0.820 srgb} bind def
/col11 {0.530 0.810 1.000 srgb} bind def
/col12 {0.000 0.560 0.000 srgb} bind def
/col13 {0.000 0.690 0.000 srgb} bind def
/col14 {0.000 0.820 0.000 srgb} bind def
/col15 {0.000 0.560 0.560 srgb} bind def
/col16 {0.000 0.690 0.690 srgb} bind def
/col17 {0.000 0.820 0.820 srgb} bind def
/col18 {0.560 0.000 0.000 srgb} bind def
/col19 {0.690 0.000 0.000 srgb} bind def
/col20 {0.820 0.000 0.000 srgb} bind def
/col21 {0.560 0.000 0.560 srgb} bind def
/col22 {0.690 0.000 0.690 srgb} bind def
/col23 {0.820 0.000 0.820 srgb} bind def
/col24 {0.500 0.190 0.000 srgb} bind def
/col25 {0.630 0.250 0.000 srgb} bind def
/col26 {0.750 0.380 0.000 srgb} bind def
/col27 {1.000 0.500 0.500 srgb} bind def
/col28 {1.000 0.630 0.630 srgb} bind def
/col29 {1.000 0.750 0.750 srgb} bind def
/col30 {1.000 0.880 0.880 srgb} bind def
/col31 {1.000 0.840 0.000 srgb} bind def

end
save
newpath 0 225 moveto 0 0 lineto 140 0 lineto 140 225 lineto closepath clip newpath
-7.7 234.7 translate
1 -1 scale

/cp {closepath} bind def
/ef {eofill} bind def
/gr {grestore} bind def
/gs {gsave} bind def
/sa {save} bind def
/rs {restore} bind def
/l {lineto} bind def
/m {moveto} bind def
/rm {rmoveto} bind def
/n {newpath} bind def
/s {stroke} bind def
/sh {show} bind def
/slc {setlinecap} bind def
/slj {setlinejoin} bind def
/slw {setlinewidth} bind def
/srgb {setrgbcolor} bind def
/rot {rotate} bind def
/sc {scale} bind def
/sd {setdash} bind def
/ff {findfont} bind def
/sf {setfont} bind def
/scf {scalefont} bind def
/sw {stringwidth} bind def
/tr {translate} bind def
/tnt {dup dup currentrgbcolor
  4 -2 roll dup 1 exch sub 3 -1 roll mul add
  4 -2 roll dup 1 exch sub 3 -1 roll mul add
  4 -2 roll dup 1 exch sub 3 -1 roll mul add srgb}
  bind def
/shd {dup dup currentrgbcolor 4 -2 roll mul 4 -2 roll mul
  4 -2 roll mul srgb} bind def
/$F2psBegin {$F2psDict begin /$F2psEnteredState save def} def
/$F2psEnd {$F2psEnteredState restore end} def

$F2psBegin
10 setmiterlimit
 0.06000 0.06000 sc
%
% Fig objects follow
%
/Times-Roman ff 180.00 scf sf
1950 600 m
gs 1 -1 sc (PPS#1) col0 sh gr
% Polyline
7.500 slw
gs  clippath
915 2130 m 915 2070 l 763 2070 l 883 2100 l 763 2130 l cp
eoclip
n 600 2100 m
 900 2100 l gs col0 s gr gr

% arrowhead
n 763 2130 m 883 2100 l 763 2070 l  col0 s
% Polyline
gs  clippath
1665 2130 m 1665 2070 l 1513 2070 l 1633 2100 l 1513 2130 l cp
eoclip
n 1350 2100 m
 1650 2100 l gs col0 s gr gr

% arrowhead
n 1513 2130 m 1633 2100 l 1513 2070 l  col0 s
% Polyline
15.000 slw
n 900 1050 m 1350 1050 l 1350 3000 l 900 3000 l
 cp gs col0 s gr 
% Polyline
n 1650 1050 m 2100 1050 l 2100 3000 l 1650 3000 l
 cp gs col0 s gr 
% Polyline
7.500 slw
gs  clippath
345 3465 m 405 3465 l 405 3313 l 375 3433 l 345 3313 l cp
eoclip
n 375 3000 m
 375 3450 l gs col0 s gr gr

% arrowhead
n 345 3313 m 375 3433 l 405 3313 l  col0 s
% Polyline
gs  clippath
1095 3465 m 1155 3465 l 1155 3313 l 1125 3433 l 1095 3313 l cp
eoclip
n 1125 3000 m
 1125 3450 l gs col0 s gr gr

% arrowhead
n 1095 3313 m 1125 3433 l 1155 3313 l  col0 s
% Polyline
gs  clippath
1845 3465 m 1905 3465 l 1905 3313 l 1875 3433 l 1845 3313 l cp
eoclip
n 1875 3000 m
 1875 3450 l gs col0 s gr gr

% arrowhead
n 1845 3313 m 1875 3433 l 1905 3313 l  col0 s
% Polyline
gs  clippath
2070 3915 m 2130 3915 l 2130 3763 l 2100 3883 l 2070 3763 l cp
eoclip
n 150 3450 m 2100 3450 l
 2100 3900 l gs col0 s gr gr

% arrowhead
n 2070 3763 m 2100 3883 l 2130 3763 l  col0 s
% Polyline
gs  clippath
1845 1065 m 1905 1065 l 1905 913 l 1875 1033 l 1845 913 l cp
eoclip
n 1875 600 m
 1875 1050 l gs col0 s gr gr

% arrowhead
n 1845 913 m 1875 1033 l 1905 913 l  col0 s
% Polyline
gs  clippath
1095 1065 m 1155 1065 l 1155 913 l 1125 1033 l 1095 913 l cp
eoclip
n 1125 450 m
 1125 1050 l gs col0 s gr gr

% arrowhead
n 1095 913 m 1125 1033 l 1155 913 l  col0 s
% Polyline
gs  clippath
345 1065 m 405 1065 l 405 913 l 375 1033 l 345 913 l cp
eoclip
n 375 300 m
 375 1050 l gs col0 s gr gr

% arrowhead
n 345 913 m 375 1033 l 405 913 l  col0 s
/Times-Roman ff 180.00 scf sf
450 2850 m
gs 1 -1 sc  90.0 rot (26 bit binary counter.) col0 sh gr
/Times-Roman ff 180.00 scf sf
2250 2025 m
gs 1 -1 sc (...) col0 sh gr
/Times-Roman ff 180.00 scf sf
1200 2850 m
gs 1 -1 sc  90.0 rot (26 bit latch) col0 sh gr
/Times-Roman ff 180.00 scf sf
1950 2850 m
gs 1 -1 sc  90.0 rot (26 bit latch) col0 sh gr
/Times-Roman ff 180.00 scf sf
450 3675 m
gs 1 -1 sc (PCI system bus) col0 sh gr
/Times-Roman ff 180.00 scf sf
450 300 m
gs 1 -1 sc (Clock) col0 sh gr
/Times-Roman ff 180.00 scf sf
1200 450 m
gs 1 -1 sc (PPS#0) col0 sh gr
% Polyline
15.000 slw
n 150 1050 m 600 1050 l 600 3000 l 150 3000 l
 cp gs col0 s gr 
$F2psEnd
rs
